{
    "id": 56044,
    "url": "http://server/api/series/56044/",
    "web_url": "http://server/project/project-name/list/?series=56044",
    "project": {
        "id": 26,
        "url": "http://server/api/projects/26/",
        "name": "Project Name",
        "link_name": "project-name",
        "list_id": "project.list.id.com",
        "list_email": "project-list@email.com",
        "web_url": "",
        "scm_url": "",
        "webscm_url": ""
    },
    "name": "Patch series description",
    "date": "2019-10-14T19:08:00",
    "submitter": {
        "id": 165,
        "url": "http://server/api/people/165/",
        "name": "Submitter Name",
        "email": "submitter@email.com"
    },
    "version": 1,
    "total": 3,
    "received_total": 3,
    "received_all": true,
    "mbox": "http://server/series/56044/mbox/",
    "cover_letter": {
        "id": 1635973,
        "url": "http://server/api/covers/1635973/",
        "web_url": "http://server/cover/1635973/",
        "msgid": "<1234567890-1-git-send-email@email.com>",
        "date": "2019-10-14T19:08:00",
        "name": "[tags,0/3] Patch series description - cover letter",
        "mbox": "http://server/cover/1635973/mbox/"
    },
    "patches": [{
        "id": 1635974,
        "url": "http://server/api/patches/1635974/",
        "web_url": "http://server/patch/1635974/",
        "msgid": "<1234567890-2-git-send-email@email.com>",
        "date": "2019-10-14T19:08:01",
        "name": "[tags,1/3] Patch series description - cover letter",
        "mbox": "http://server/patch/1635974/mbox/"
    }, {
        "id": 1635976,
        "url": "http://server/api/patches/1635976/",
        "web_url": "http://server/patch/1635976/",
        "msgid": "<1234567890-3-git-send-email@email.com>",
        "date": "2019-10-14T19:08:02",
        "name": "[tags,2/3] Patch series description - second part",
        "mbox": "http://server/patch/1635976/mbox/"
    }, {
        "id": 1635975,
        "url": "http://server/api/patches/1635975/",
        "web_url": "http://server/patch/1635975/",
        "msgid": "<1234567890-4-git-send-email@email.com>",
        "date": "2019-10-14T19:08:03",
        "name": "[tags,3/3] Patch series description - third part",
        "mbox": "http://server/patch/1635975/mbox/"
    }]
}
